{
    "sports": [
        {
            "name": "soccer",
            "accounts": [
                {
                    "email": "soccerbettor01@gmail.com",
                    "username": "soccerbettor01",
                    "password": "soccerbet"
                }
            ]
        }
    ]
}